%!PS-Adobe-3.0 EPSF-3.0
%%BoundingBox: 12 6 467 373
%%Title: DSTeX/img/logbOPi.eps
%%Creator: (c) Olivier Pirson --- DragonSoft
%%CreationDate: 2010/08/01
%%EndComments
28.346 dup scale
1 setlinecap
.9 setlinewidth

% O
7.7 12.3 moveto
6.4 13.1
4.4 12.4
3.6 11.9 curveto
stroke

3.6 11.9 moveto
-.7 9
0 .5
6.7 0.7 curveto
stroke

6.7 0.7 moveto
8.9 0.6
12.5 2
13 6.5 curveto
stroke

13 6.5 moveto
13.5 13.8
10.4 13.8
8.4 10.4 curveto
stroke

8.4 10.4 moveto
6.1 6
5.7 5.5
3 3.7 curveto
stroke

% Pi
7.7 6.4 moveto
3.5 1.5
14.8 4.9
5.7 5.7 curveto
stroke

5.7 5.7 moveto
.7 6.6
2.7 8
16 9.7 curveto
stroke

showpage
%%Trailer
